…
                     values_to = "transition")
dat4$from <- car::recode(dat4$from, 
                         "1='Soft substance';
                         2='No users';
                         3='All substances';
                         4='Alcohol' ")
dat4$to <- car::recode(dat4$to, 
                         "1='Soft substance';
                         2='No users';
                         3='All substances';
                         4='Alcohol' ")
dat4
```

    # A tibble: 368 x 4
       time  from           to             transition
       <fct> <fct>          <chr>               <dbl>
     1 0     Soft substance Soft substance    0.649  
     2 0     Soft substance No users          0.0683 
     3 0     Soft substance All substances    0.222  
     4 0     Soft substance Alcohol           0.0608 
     5 0     No users       Soft substance    0.0506 
     6 0     No users       No users          0.724  
     7 0     No users       All substances    0.00476
     8 0     No users       Alcohol           0.221  
     9 0     All substances Soft substance    0.0549 
    10 0     All substances No users          0.00230
    # ... with 358 more rows
…
